<svg width="29" height="28" viewBox="0 0 29 28" fill="none" xmlns="http://www.w3.org/2000/svg">
<path d="M16.1131 19.333C16.1131 21.309 17.7149 22.9108 19.6908 22.9108C21.6668 22.9108 23.2686 21.309 23.2686 19.333C23.2686 17.3571 21.6668 15.7552 19.6908 15.7552M12.3868 8.66702C12.3868 10.643 10.785 12.2448 8.80908 12.2448C6.83314 12.2448 5.23132 10.643 5.23132 8.66702C5.23132 6.69107 6.83314 5.08926 8.80908 5.08926C10.785 5.08926 12.3868 6.69107 12.3868 8.66702ZM12.3868 19.333C12.3868 21.309 10.785 22.9108 8.80908 22.9108C6.83314 22.9108 5.23132 21.309 5.23132 19.333C5.23132 17.3571 6.83314 15.7552 8.80908 15.7552C10.785 15.7552 12.3868 17.3571 12.3868 19.333ZM23.2686 8.66702C23.2686 10.643 21.6668 12.2448 19.6908 12.2448C17.7149 12.2448 16.1131 10.643 16.1131 8.66702C16.1131 6.69107 17.7149 5.08926 19.6908 5.08926C21.6668 5.08926 23.2686 6.69107 23.2686 8.66702Z" stroke="#44A0EB" stroke-width="1.5"/>
<g opacity="0.6" filter="url(#filter0_b_1222_2258)">
<path d="M10.4928 5.78549C10.4928 8.27396 8.47546 10.2913 5.98699 10.2913C3.49851 10.2913 1.4812 8.27396 1.4812 5.78549C1.4812 3.29701 3.49851 1.2797 5.98699 1.2797C8.47546 1.2797 10.4928 3.29701 10.4928 5.78549Z" fill="#30BADA" fill-opacity="0.15"/>
<path d="M10.4928 17.6889C10.4928 20.1774 8.47546 22.1947 5.98699 22.1947C3.49851 22.1947 1.4812 20.1774 1.4812 17.6889C1.4812 15.2005 3.49851 13.1832 5.98699 13.1832C8.47546 13.1832 10.4928 15.2005 10.4928 17.6889Z" fill="#30BADA" fill-opacity="0.15"/>
<path d="M22.2824 17.6889C22.2824 20.1774 20.2651 22.1947 17.7767 22.1947C15.2882 22.1947 13.2709 20.1774 13.2709 17.6889C13.2709 15.2005 15.2882 13.1832 17.7767 13.1832C20.2651 13.1832 22.2824 15.2005 22.2824 17.6889Z" fill="#30BADA" fill-opacity="0.15"/>
<path d="M22.2824 5.78549C22.2824 8.27396 20.2651 10.2913 17.7767 10.2913C15.2882 10.2913 13.2709 8.27396 13.2709 5.78549C13.2709 3.29701 15.2882 1.2797 17.7767 1.2797C20.2651 1.2797 22.2824 3.29701 22.2824 5.78549Z" fill="#30BADA" fill-opacity="0.15"/>
</g>
<defs>
<filter id="filter0_b_1222_2258" x="-2.5188" y="-2.7203" width="28.8013" height="28.915" filterUnits="userSpaceOnUse" color-interpolation-filters="sRGB">
<feFlood flood-opacity="0" result="BackgroundImageFix"/>
<feGaussianBlur in="BackgroundImage" stdDeviation="2"/>
<feComposite in2="SourceAlpha" operator="in" result="effect1_backgroundBlur_1222_2258"/>
<feBlend mode="normal" in="SourceGraphic" in2="effect1_backgroundBlur_1222_2258" result="shape"/>
</filter>
</defs>
</svg>
