<svg width="24" height="25" viewBox="0 0 24 25" fill="none" xmlns="http://www.w3.org/2000/svg">
<path d="M6.27772 12.0018L5.61556 12.354V12.354L6.27772 12.0018ZM1.61034 3.22679L2.2725 2.87459L2.2725 2.87459L1.61034 3.22679ZM2.54249 2.25952L2.86998 1.58479L2.86998 1.58479L2.54249 2.25952ZM21.9888 11.698L21.6613 12.3727H21.6613L21.9888 11.698ZM6.27772 12.6653L5.61556 12.3131V12.3131L6.27772 12.6653ZM1.61034 21.4403L2.2725 21.7925H2.2725L1.61034 21.4403ZM2.54249 22.4076L2.86998 23.0823H2.86998L2.54249 22.4076ZM21.9888 12.9691L22.3163 13.6438L21.9888 12.9691ZM6.93988 11.6496L2.2725 2.87459L0.948178 3.57899L5.61556 12.354L6.93988 11.6496ZM2.21501 2.93424L21.6613 12.3727L22.3163 11.0233L2.86998 1.58479L2.21501 2.93424ZM5.61556 12.3131L0.948178 21.0881L2.2725 21.7925L6.93988 13.0175L5.61556 12.3131ZM2.86998 23.0823L22.3163 13.6438L21.6613 12.2944L2.21501 21.7328L2.86998 23.0823ZM0.948179 21.0881C0.286248 22.3326 1.60188 23.6978 2.86998 23.0823L2.21501 21.7328C2.21083 21.7349 2.21323 21.7331 2.22135 21.7321C2.22922 21.7311 2.23777 21.7315 2.24563 21.7331C2.26026 21.7362 2.26527 21.7417 2.2654 21.7418C2.26554 21.742 2.27084 21.7472 2.27335 21.7619C2.2747 21.7698 2.27477 21.7784 2.27352 21.7862C2.27222 21.7943 2.27032 21.7966 2.2725 21.7925L0.948179 21.0881ZM21.6613 12.3727C21.6623 12.3732 21.6594 12.3719 21.6548 12.3677C21.6504 12.3636 21.6464 12.3586 21.6433 12.3535C21.6375 12.3437 21.6368 12.3367 21.6368 12.3335C21.6368 12.3304 21.6375 12.3234 21.6433 12.3136C21.6464 12.3085 21.6504 12.3035 21.6548 12.2994C21.6594 12.2952 21.6623 12.2939 21.6613 12.2944L22.3163 13.6438C23.4103 13.1128 23.4103 11.5543 22.3163 11.0233L21.6613 12.3727ZM2.2725 2.87459C2.27032 2.87049 2.27222 2.87282 2.27352 2.8809C2.27477 2.88872 2.2747 2.89728 2.27335 2.90519C2.27084 2.91993 2.26554 2.92514 2.2654 2.92528C2.26527 2.92542 2.26026 2.9309 2.24563 2.93396C2.23777 2.93561 2.22922 2.93599 2.22135 2.93503C2.21323 2.93403 2.21083 2.93221 2.21501 2.93424L2.86998 1.58479C1.60188 0.969306 0.286248 2.33451 0.948179 3.57899L2.2725 2.87459ZM5.61556 12.354C5.60875 12.3412 5.60875 12.3259 5.61556 12.3131L6.93988 13.0175C7.16731 12.5899 7.16731 12.0772 6.93988 11.6496L5.61556 12.354ZM22.4755 11.5836L5.94402 11.5836V13.0836L22.4755 13.0836V11.5836Z" fill="#333333"/>
</svg>
