<svg width="370" height="145" viewBox="0 0 370 145" fill="none" xmlns="http://www.w3.org/2000/svg">
<g filter="url(#filter0_d_985_1960)">
<path fill-rule="evenodd" clip-rule="evenodd" d="M11 17.4864C11 13.0681 14.5817 9.48639 19 9.48639L346 9.48645C350.418 9.48645 354 13.0682 354 17.4864L354 46.4864C354 50.9047 350.05 54.3208 346.58 57.0551C343.791 59.2524 342 62.6603 342 66.4864C342 70.3125 343.791 73.7203 346.58 75.9177C350.05 78.652 354 82.0681 354 86.4864L354 115.486C354 119.905 350.418 123.486 346 123.486L19 123.486C14.5817 123.486 11 119.905 11 115.486L11 86.4864C11 82.0681 14.9499 78.652 18.4204 75.9177C21.2094 73.7204 23 70.3125 23 66.4864C23 62.6603 21.2094 59.2524 18.4204 57.0551C14.9499 54.3208 11 50.9047 11 46.4864L11 17.4864Z" fill="#FF9E0C"/>
</g>
<defs>
<filter id="filter0_d_985_1960" x="0" y="0.486389" width="373" height="144" filterUnits="userSpaceOnUse" color-interpolation-filters="sRGB">
<feFlood flood-opacity="0" result="BackgroundImageFix"/>
<feColorMatrix in="SourceAlpha" type="matrix" values="0 0 0 0 0 0 0 0 0 0 0 0 0 0 0 0 0 0 127 0" result="hardAlpha"/>
<feOffset dx="4" dy="6"/>
<feGaussianBlur stdDeviation="7.5"/>
<feComposite in2="hardAlpha" operator="out"/>
<feColorMatrix type="matrix" values="0 0 0 0 0 0 0 0 0 0 0 0 0 0 0 0 0 0 0.1 0"/>
<feBlend mode="normal" in2="BackgroundImageFix" result="effect1_dropShadow_985_1960"/>
<feBlend mode="normal" in="SourceGraphic" in2="effect1_dropShadow_985_1960" result="shape"/>
</filter>
</defs>
</svg>
